<?xml version="1.0" encoding="utf-8"?>
<!-- Generator: Adobe Illustrator 21.0.2, SVG Export Plug-In . SVG Version: 6.00 Build 0)  -->
<svg version="1.1" id="Capa_1" xmlns="http://www.w3.org/2000/svg" xmlns:xlink="http://www.w3.org/1999/xlink" x="0px" y="0px"
	 viewBox="0 0 88 88" style="enable-background:new 0 0 88 88;" xml:space="preserve">
<style type="text/css">
	.st0{fill:none;stroke:#5593F9;stroke-width:4;stroke-linecap:round;stroke-linejoin:round;stroke-miterlimit:10;}
</style>
<title>ico-album</title>
<desc>Created with Sketch.</desc>
<g>
	<line class="st0" x1="33.9" y1="17.3" x2="53.8" y2="17.3"/>
	<polyline class="st0" points="17.4,17.3 10,17.3 10,76.9 78,76.9 78,17.3 70.3,17.3 	"/>
	<line class="st0" x1="60.4" y1="41" x2="67.3" y2="41"/>
	<line class="st0" x1="62.5" y1="18.9" x2="62.5" y2="11.1"/>
	<line class="st0" x1="25.3" y1="18.9" x2="25.3" y2="11.1"/>
	<line class="st0" x1="60.4" y1="52.4" x2="67.3" y2="52.4"/>
	<line class="st0" x1="60.4" y1="63.3" x2="67.3" y2="63.3"/>
	<line class="st0" x1="40.6" y1="41" x2="48" y2="41"/>
	<line class="st0" x1="40.6" y1="52.4" x2="48" y2="52.4"/>
	<line class="st0" x1="40.6" y1="63.3" x2="48" y2="63.3"/>
	<line class="st0" x1="21.6" y1="41" x2="29" y2="41"/>
	<line class="st0" x1="21.6" y1="52.4" x2="29" y2="52.4"/>
	<line class="st0" x1="21.6" y1="63.3" x2="29" y2="63.3"/>
	<line class="st0" x1="10" y1="28.6" x2="78" y2="28.6"/>
</g>
</svg>
