<?xml version="1.0" encoding="UTF-8"?>
<svg width="500px" height="500px" viewBox="0 0 500 500" version="1.1" xmlns="http://www.w3.org/2000/svg" xmlns:xlink="http://www.w3.org/1999/xlink">
    <!-- Generator: Sketch 46 (44423) - http://www.bohemiancoding.com/sketch -->
    <title>uE004-up</title>
    <desc>Created with Sketch.</desc>
    <defs></defs>
    <g id="Iconfont" stroke="none" stroke-width="1" fill="none" fill-rule="evenodd">
        <g id="icon/arrow-up" fill="#FFFFFF">
            <polygon id="Fill-2" points="368.895833 278.208333 257.354167 166.666667 145.833333 278.208333 160.5625 292.9375 257.354167 196.145833 354.166667 292.9375"></polygon>
        </g>
        <g id="slides" transform="translate(-1500.000000, 0.000000)"></g>
    </g>
</svg>